<?xml version="1.0" encoding="iso-8859-1"?>
<!-- Generator: Adobe Illustrator 17.1.0, SVG Export Plug-In . SVG Version: 6.00 Build 0)  -->
<!DOCTYPE svg PUBLIC "-//W3C//DTD SVG 1.1//EN" "http://www.w3.org/Graphics/SVG/1.1/DTD/svg11.dtd">
<svg version="1.1" xmlns="http://www.w3.org/2000/svg"  x="0px" y="0px"
	 viewBox="0 0 93.5 93" style="enable-background:new 0 0 93.5 93;" xml:space="preserve">
<g id="&#x421;&#x43B;&#x43E;&#x439;_1" style="display:none;">
	
		<image style="display:inline;overflow:visible;" width="1024" height="1024" href="../&#x441;&#x430;&#x439;&#x442;/&#x438;&#x43A;&#x43E;&#x43D;&#x43A;&#x438;/add_contact_to_company1600.png"  transform="matrix(0.6953 0 0 0.6953 604 144)" >
	</image>
</g>
<g id="&#x421;&#x43B;&#x43E;&#x439;_2">
	<g>
		<polyline style="fill:none;stroke:#2083E3;stroke-width:2;stroke-miterlimit:10;" points="43.09,78.046 19.916,78.046 
			19.916,24.054 69.658,24.054 69.658,54.802 		"/>
		<polyline style="fill:none;stroke:#2083E3;stroke-width:2;stroke-miterlimit:10;" points="28.85,24.054 27.141,24.054 
			27.141,16.593 61.442,16.593 61.442,24.054 31.83,24.054 		"/>
		<rect x="28.16" y="31.343" style="fill:#2083E3;" width="6.149" height="2.902"/>
		<rect x="28.16" y="38.735" style="fill:#2083E3;" width="6.149" height="2.902"/>
		<rect x="28.16" y="46.128" style="fill:#2083E3;" width="6.149" height="2.902"/>
		<rect x="41.632" y="31.343" style="fill:#2083E3;" width="6.149" height="2.902"/>
		<rect x="41.632" y="38.735" style="fill:#2083E3;" width="6.149" height="2.902"/>
		<rect x="41.632" y="46.128" style="fill:#2083E3;" width="6.149" height="2.902"/>
		<rect x="54.689" y="31.343" style="fill:#2083E3;" width="6.149" height="2.902"/>
		<rect x="54.689" y="38.735" style="fill:#2083E3;" width="6.149" height="2.902"/>
		<rect x="54.689" y="46.128" style="fill:#2083E3;" width="6.149" height="2.902"/>
		<rect x="28.16" y="53.382" style="fill:#2083E3;" width="6.149" height="2.902"/>
		<rect x="28.16" y="60.912" style="fill:#2083E3;" width="6.149" height="2.902"/>
		<rect x="28.16" y="68.235" style="fill:#2083E3;" width="6.149" height="2.902"/>
		<path style="fill:none;stroke:#2083E3;stroke-width:2;stroke-miterlimit:10;" d="M77.298,77.009c0,1.975-1.601,3.575-3.575,3.575
			H46.519c-1.975,0-3.575-1.601-3.575-3.575V58.408c0-1.975,1.601-3.575,3.575-3.575h27.203c1.975,0,3.575,1.601,3.575,3.575V77.009
			z"/>
		<path style="fill:#2083E3;" d="M56.514,72.795l-3.639,1.984c-0.213,0.117-0.407,0.261-0.584,0.416
			c2.121,1.789,4.861,2.867,7.851,2.867c2.971,0,5.692-1.063,7.807-2.827c-0.193-0.164-0.407-0.312-0.641-0.429l-3.896-1.948
			c-0.503-0.252-0.823-0.766-0.823-1.331V70c0.11-0.124,0.236-0.285,0.369-0.474c0.533-0.751,0.933-1.576,1.211-2.441
			c0.501-0.155,0.87-0.616,0.87-1.164V64.29c0-0.36-0.159-0.681-0.409-0.906v-2.36c0,0,0.486-3.67-4.488-3.67
			c-4.97,0-4.486,3.67-4.486,3.67v2.36c-0.249,0.224-0.409,0.546-0.409,0.906v1.632c0,0.429,0.227,0.807,0.564,1.027
			C56.222,68.723,57.289,70,57.289,70v1.492C57.289,72.034,56.991,72.535,56.514,72.795L56.514,72.795z M56.514,72.795"/>
	</g>
</g>
</svg>
