<?xml version="1.0" encoding="iso-8859-1"?>
<!-- Generator: Adobe Illustrator 17.1.0, SVG Export Plug-In . SVG Version: 6.00 Build 0)  -->
<!DOCTYPE svg PUBLIC "-//W3C//DTD SVG 1.1//EN" "http://www.w3.org/Graphics/SVG/1.1/DTD/svg11.dtd">
<svg version="1.1" id="&#x421;&#x43B;&#x43E;&#x439;_1"
	 xmlns="http://www.w3.org/2000/svg"  x="0px" y="0px" viewBox="0 0 283.46 192.76"
	 style="enable-background:new 0 0 283.46 192.76;" xml:space="preserve">
<g>
	<rect x="64.066" y="144.855" style="fill:#2083E3;" width="60.186" height="5.924"/>
	<rect x="136.353" y="144.792" style="fill:#2083E3;" width="5.892" height="18.154"/>
	<rect x="154.412" y="144.792" style="fill:#2083E3;" width="5.892" height="18.154"/>
	<rect x="172.468" y="144.792" style="fill:#2083E3;" width="5.892" height="18.154"/>
	<rect x="190.521" y="144.792" style="fill:#2083E3;" width="5.892" height="18.154"/>
	<rect x="208.581" y="144.792" style="fill:#2083E3;" width="5.892" height="18.154"/>
	<path style="fill:#2083E3;" d="M232.529,181.164V91.587l-42.385,21.308L184.219,5.671h-29.631l-6.085,97.899l-18.627,9.363
		l-5.896-80.03H94.467l-6.109,70.647l-42.285,21.256v56.358H43v5.924h192.602v-5.924H232.529z M160.125,11.596h18.52l0.341,6.179
		h-19.246L160.125,11.596z M159.373,23.699h19.941l0.341,6.178h-20.667L159.373,23.699z M158.62,35.801h21.362l4.42,79.98
		l-12.061,6.063V91.587l-17.743,8.92L158.62,35.801z M99.87,38.828h18.638l0.456,6.178H99.336L99.87,38.828z M98.824,50.93H119.4
		l0.455,6.179H98.289L98.824,50.93z M97.777,63.034h22.515l3.887,52.764l-12.026,6.046V91.587l-17.611,8.854L97.777,63.034z
		 M64.129,181.164H51.965v-6.178h12.164V181.164z M118.297,181.164H70.021v-21.306h48.276V181.164z M226.636,181.164H124.19v-6.178
		h102.447V181.164z M226.636,169.06H124.19v-15.129H64.129v15.129H51.965v-40.592l54.296-27.296v30.257l60.188-30.257v30.257
		l60.188-30.257V169.06z M226.636,169.06"/>
</g>
</svg>
